…
## QUESTION 4: MEDIAN ALCOHOL CONTENT

We compute the median for both alcohol content [ABV] and bitterness [IBU] for each state. In order to do this we first grouped the combined dataset by State, then sumarized that grouped data calculating the median for ABV and IBU. NA values were ignored and the resulting data was put into a dataframe called "plot1." We then created the chart below to visualize this data where the height represents the alcohol content and the darkness of color represents the bitterness


```r
# data first grouped by state
# then piped to summarize function which aggregates on median() function
# note that NA values were ignored
combined %>% group_by(State) %>% summarize(Alcohol_content = median(ABV, na.rm = TRUE), Bitterness= median(IBU, na.rm = TRUE)) -> plot1
plot1
```

```
## # A tibble: 51 x 3
##    State Alcohol_content Bitterness
##    <chr>           <dbl>      <dbl>
##  1 AK             0.056        46  
##  2 AL             0.06         43  
##  3 AR             0.052        39  
##  4 AZ             0.055        20.5
##  5 CA             0.058        42  
##  6 CO             0.0605       40  
##  7 CT             0.06         29  
##  8 DC             0.0625       47.5
##  9 DE             0.055        52  
## 10 FL             0.057        55  
## # ... with 41 more rows
```
…
