Case Stydy 1
…
##      Brew_ID Brewery_Name         City        State    Beer_Name 
##            0            0            0            0            0 
##      Beer_ID          ABV          IBU        Style       Ounces 
##            0           62         1005            0            0

QUESTION 4: MEDIAN ALCOHOL CONTENT

We compute the median alcohol content and international bitterness unit in a beer for each state from the combined dataset. In order to compute the alcohol content and international bitterness unit in a beer for each state from the combined dataset, we grouped the combined dataset by State, then we sumarized by alcohol content and international bitterness unit per beer using the median function. We decided to get rid of the NA values, we used the pipe function from the dplyr library to design this code. The final product of the function is plot1.

combined %>% group_by(State) %>% summarize(Alcohol_content = median(ABV, na.rm = TRUE), Bitterness= median(IBU, na.rm = TRUE)) ->plot1
plot1

## # A tibble: 51 x 3
##    State Alcohol_content Bitterness
##    <chr>           <dbl>      <dbl>
##  1 AK             0.056        46  
##  2 AL             0.06         43  
##  3 AR             0.052        39  
##  4 AZ             0.055        20.5
##  5 CA             0.058        42  
##  6 CO             0.0605       40  
##  7 CT             0.06         29  
##  8 DC             0.0625       47.5
##  9 DE             0.055        52  
## 10 FL             0.057        55  
## #  with 41 more rows
…
In the following code we found the most frequent beers style and name in the US territory. BeersStyle is the most frequent beer style. BeersName is the most frequent beers name in the US territory.

beers %>% count(Style) %>% arrange(desc(n)) -> BeersStyle
BeersStyle

## # A tibble: 100 x 2
##    Style                              n
##    <fct>                          <int>
##  1 American IPA                     424
##  2 American Pale Ale (APA)          245
##  3 American Amber / Red Ale         133
##  4 American Blonde Ale              108
##  5 American Double / Imperial IPA   105
##  6 American Pale Wheat Ale           97
##  7 American Brown Ale                70
##  8 American Porter                   68
##  9 Saison / Farmhouse Ale            52
## 10 Witbier                           51
## #  with 90 more rows

beers %>% count(Name) %>% arrange(desc(n)) -> BeersName
BeersName

## # A tibble: 2,305 x 2
##    Name                       n
##    <fct>                  <int>
##  1 Nonstop Hef Hop           12
##  2 Dale's Pale Ale            6
##  3 Oktoberfest                6
##  4 Longboard Island Lager     4
##  5 1327 Pod's ESB             3
##  6 Boston Lager               3
##  7 Dagger Falls IPA           3
##  8 #9                         2
##  9 312 Urban Pale Ale         2
## 10 312 Urban Wheat Ale        2
## #  with 2,295 more rows
…
